[('TOKEN', 'Alle'), ('TOKEN', 'meine'), ('TOKEN', 'Entchen')]
[('TOKEN', 'Alle'), ('TOKEN', 'meine'), ('TOKEN', 'Entchen'), ('SUFFIX', '.')]
[('TOKEN', 'Alle'), ('TOKEN', 'meine/deine'), ('TOKEN', 'Entchen')]
[('TOKEN', 'Alle'), ('TOKEN', 'meine'), ('TOKEN', '/'), ('TOKEN', 'deine'), ('TOKEN', 'Entchen')]
[('TOKEN', 'Alle'), ('TOKEN', 'meine'), ('TOKEN', 'Äntchen')]
[('TOKEN', 'Alle'), ('TOKEN', 'meine'), ('TOKEN', 'Entchen'), ('SUFFIX', '!')]
[('TOKEN', 'Alle'), ('TOKEN', 'meine'), ('TOKEN', 'Entchen'), ('PREFIX', '!')]
[('TOKEN', 'Alle'), ('TOKEN', 'meine'), ('TOKEN', 'Entchen'), ('PREFIX', '!'), ('SUFFIX', '!')]
[('TOKEN', 'Alle'), ('TOKEN', 'meine'), ('TOKEN', 'Entchen'), ('PREFIX', '!'), ('SUFFIX', '?')]
[('TOKEN', 'Alle'), ('TOKEN', 'meine'), ('PREFIX', '#'), ('TOKEN', 'Entchen')]
[('PREFIX', '"'), ('TOKEN', 'Alle'), ('TOKEN', 'meine'), ('TOKEN', 'Entchen'), ('SUFFIX', '"')]
[('TOKEN', 'Alle'), ('TOKEN', 'meine'), ('TOKEN', 'Entchen'), ('SUFFIX', "'s")]
[('TOKEN', 'Meine'), ('TOKEN', '10Enchtchen')]
[('TOKEN', 'Meine'), ('TOKEN', '10'), ('TOKEN', 'Entchen')]
[('TOKEN', 'Mein'), ('TOKEN', '10.Entchen')]
[('TOKEN', 'Mein'), ('TOKEN', '10'), ('SUFFIX', '.'), ('TOKEN', 'Entchen')]
[('TOKEN', 'Alle'), ('TOKEN', 'meine'), ('PREFIX', '"'), ('TOKEN', 'Entchen'), ('SUFFIX', '"')]
[('TOKEN', 'Alle'), ('TOKEN', 'meine'), ('PREFIX', "'"), ('TOKEN', 'Entchen'), ('SUFFIX', "'")]
[('TOKEN', 'Alle'), ('TOKEN', 'meine'), ('PREFIX', '`'), ('TOKEN', 'Entchen'), ('SUFFIX', "'")]
[('TOKEN', 'Alle'), ('TOKEN', 'meine'), ('PREFIX', '"'), ('TOKEN', 'Entchen'), ('SUFFIX', '!'), ('SUFFIX', '"')]
[('TOKEN', 'Alle'), ('TOKEN', 'meine'), ('PREFIX', "'"), ('TOKEN', 'Entchen'), ('SUFFIX', '!'), ('SUFFIX', "'")]
[('TOKEN', 'Alle'), ('TOKEN', 'meine'), ('PREFIX', '`'), ('TOKEN', 'Entchen'), ('SUFFIX', '!'), ('SUFFIX', "'")]
[('TOKEN', 'Alle'), ('TOKEN', 'meine'), ('PREFIX', '"'), ('TOKEN', 'Entchen'), ('SUFFIX', '"'), ('SUFFIX', '!')]
[('TOKEN', 'Alle'), ('TOKEN', 'meine'), ('PREFIX', "'"), ('TOKEN', 'Entchen'), ('SUFFIX', "'"), ('SUFFIX', '!')]
[('TOKEN', 'Alle'), ('TOKEN', 'meine'), ('PREFIX', '`'), ('TOKEN', 'Entchen'), ('SUFFIX', "'"), ('SUFFIX', '!')]
[('TOKEN', 'Alle'), ('TOKEN', 'meine'), ('PREFIX', '"'), ('TOKEN', 'Entchen'), ('SUFFIX', "'s"), ('SUFFIX', '"')]
[('TOKEN', 'Alle'), ('TOKEN', 'meine'), ('PREFIX', "'"), ('TOKEN', 'Entchen'), ('SUFFIX', "'s"), ('SUFFIX', "'")]
[('TOKEN', 'Alle'), ('TOKEN', 'meine'), ('PREFIX', '`'), ('TOKEN', 'Entchen'), ('SUFFIX', "'s"), ('SUFFIX', "'")]
[('TOKEN', 'PP.3446.PP'), ('TOKEN', '.ALDDMARKETI'), ('SUFFIX', ','), ('TOKEN', 'Ihr'), ('TOKEN', 'Einkauf'), ('TOKEN', 'bei'), ('TOKEN', 'ALDDMERKETI')]
[('TOKEN', 'Aalen'), ('TOKEN', 'Als'), ('TOKEN', 'Abbaus'), ('TOKEN', 'Abbau')]
[('TOKEN', 'Apples'), ('TOKEN', 'and'), ('TOKEN', 'oranges')]
[('TOKEN', 'Hunde'), ('TOKEN', 'und'), ('TOKEN', 'Katzen')]
